##group,src_cu,src_ldev,dst_cu,dst_ldev,src_sn,dst_sn
sbconsmr1,31,0,21,0,32509,32509
sbconsmr2,31,1,21,1,32509,32509
sbkprdccpdb2,31,2,21,2,32509,32509
sbkprdccpdb2,31,3,21,3,32509,32509
sbkmaster1,31,5,21,5,32509,32509
sbkmaster2,31,6,21,6,32509,32509
sbkprdccpdb2,31,7,21,7,32509,32509
sbkprdscsdb,31,0a,21,0a,32509,32509
sbkprdscsdb,31,0b,21,0b,32509,32509
sbkprdwsj,31,0c,21,0f,32509,32509
sbkprdwsj,31,0d,21,10,32509,32509
sbkprdwsj,31,0e,21,11,32509,32509
sbkprdwsj,31,0f,21,12,32509,32509
sbkprdwsj,31,10,21,13,32509,32509
sbkprdwsj,31,11,21,14,32509,32509
sbkprdmaestrodb,31,12,21,0c,32509,32509
atexdb1,31,15,21,15,32509,32509
atexdb1,31,16,21,16,32509,32509
atexdb1,31,17,21,17,32509,32509
atexdb1,31,18,21,18,32509,32509
atexdb1,31,19,21,19,32509,32509
sbkprdbar,31,1a,21,1a,32509,32509
sbkprdbar,31,1b,21,1b,32509,32509
sbkprdbar,31,1c,21,1c,32509,32509
sbkprdbar,31,1d,21,1d,32509,32509
sbkprdbar,31,1e,21,1e,32509,32509
sbkprdbar,31,1f,21,1f,32509,32509
sbke2kmb01,33,0,23,0,32509,32509
sbke2kmb01,33,1,23,1,32509,32509
sbke2kmb01,33,2,23,2,32509,32509
sbke2kmb01,33,3,23,3,32509,32509
sbke2kmb01,33,4,23,4,32509,32509
sbke2kmb02,33,5,23,5,32509,32509
sbke2kmb02,33,6,23,6,32509,32509
sbke2kmb02,33,7,23,7,32509,32509
sbke2kmb02,33,8,23,8,32509,32509
sbke2kmb02,33,9,23,9,32509,32509
sbke2kmb02,33,0a,23,0a,32509,32509
sbke2kmb03,33,0b,23,0b,32509,32509
sbke2kmb03,33,0c,23,0c,32509,32509
sbke2kmb03,33,0d,23,0d,32509,32509
sbke2kmb03,33,0e,23,0e,32509,32509
sbke2kmb03,33,0f,23,0f,32509,32509
sbke2kmb04,33,10,23,10,32509,32509
sbke2kmb04,33,11,23,11,32509,32509
sbke2kmb04,33,12,23,12,32509,32509
sbke2kmb04,33,13,23,13,32509,32509
sbke2kmb04,33,14,23,14,32509,32509
sbke2kmb04,33,15,23,15,32509,32509
sbkw2k3isrcprd1,33,16,23,16,32509,32509
sbkw2k3isrcprd1,33,17,23,17,32509,32509
sbkw2k3isrcprd1,33,18,23,18,32509,32509
sbkw2k3isrcprd1,33,19,23,19,32509,32509
sbkw2kapp01,33,1a,23,1a,32509,32509
sbkw2ksqlp01,33,1b,23,1b,32509,32509
sbkw2ksqlp01,33,1c,23,1c,32509,32509
sbksqlmtwmms01,33,1d,23,1d,32509,32509
sbksqlmtwmms01,33,1e,23,1e,32509,32509
sbksqlmtwmms01,33,1f,23,1f,32509,32509
sbksqlmtwmms01,33,20,23,20,32509,32509
sbksqlmtwmms01,33,21,23,21,32509,32509
sbkdjgistg,32,0,22,8,32509,32509
sbkdjgistg,32,1,22,9,32509,32509
sbkdjgistg,32,2,22,0a,32509,32509
sbkdjgistg,32,3,22,0b,32509,32509
sbkdjgistg,32,4,22,0c,32509,32509
sbkgamsdb,30,0,20,0,32509,32509
sbkwmdbp02a,30,1,20,1,32509,32509
sbkwmdbp02a,30,2,20,2,32509,32509
bbs03,33,22,23,22,32509,32509
bbs03,33,23,23,23,32509,32509
sbkonprdsqlrwdb01,33,1d,23,1d,32509,32509
sbkonprdsqlrwdb02,33,1e,23,1e,32509,32509
sbkwgisdb1,33,1f,23,1f,32509,32509
sbkwgisdb1,33,20,23,20,32509,32509
sbk1mcnets1,31,8,21,8,32509,32509
sbknwsrtns,10,0,15,0,32509,32509
sbknwsrtns,10,1,15,1,32509,32509
sbknwsrtns,10,2,15,2,32509,32509
sbknwsrtns,10,3,15,3,32509,32509
sbknwsrtns,10,4,15,4,32509,32509
sbknwsed2prd,31,20,21,20,32509,32509
sbknwsed2prd,31,21,21,21,32509,32509
sbknwsed2prd,31,22,21,22,32509,32509
sbknwsed2prd,31,23,21,23,32509,32509
sbknwsed2prd,31,24,21,24,32509,32509
sbknwsed2prd,31,25,21,25,32509,32509
sbkprditgdb1,30,03,20,03,32509,32509
sbkprditgdb2,30,04,20,04,32509,32509
Sbkj2kdbp,30,05,20,05,32509,32509
Sbkj2kdbp,30,06,20,06,32509,32509
sbkj2kcidw01,30,07,20,07,32509,32509
sbkj2kcidw01,30,08,20,08,32509,32509
sbkj2kcidw01,30,09,20,09,32509,32509
sbkprdremedydb1,30,0A,20,0A,32509,32509
sbkprdremedydb1,30,0B,20,0B,32509,32509
Sbkshoradb,30,0C,20,0C,32509,32509
Sbkshoradb,30,0D,21,0D,32509,32509
